Division,WeightClassKg,Place,Name,Team,BodyweightKg,Best3SquatKg,Best3BenchKg,Best3DeadliftKg,TotalKg,Equipment,Event,Sex
Junior Varsity,51.71,1,AJ Perez,Santa Gertrudis Academy,51.26,97.52,65.77,117.93,281.23,Single-ply,SBD,M
Junior Varsity,51.71,2,Eddie Macias,Laredo Nixon,46.27,72.57,36.29,83.91,192.78,Single-ply,SBD,M
Junior Varsity,55.79,1,Jerry Martinez,Laredo Johnson,54.43,88.45,63.5,111.13,263.08,Single-ply,SBD,M
Junior Varsity,55.79,DQ,Jorge Resendiz,Laredo Martin,55.79,,,,,Single-ply,SBD,M
Junior Varsity,59.87,2,Tony De La Rosa,Santa Gertrudis Academy,56.7,97.52,54.43,99.79,251.74,Single-ply,SBD,M
Junior Varsity,59.87,3,Troy Banda,Laredo Nixon,58.97,95.25,45.36,104.33,244.94,Single-ply,SBD,M
Junior Varsity,59.87,4,Ryan Elizondo,Santa Gertrudis Academy,58.51,72.57,49.9,81.65,204.12,Single-ply,SBD,M
Junior Varsity,59.87,5,Ramiro Rangel,Laredo Cigarroa,58.06,54.43,34.02,102.06,190.51,Single-ply,SBD,M
Junior Varsity,67.13,1,John Molina,Laredo Johnson,65.32,115.67,63.5,142.88,322.05,Single-ply,SBD,M
Junior Varsity,67.13,2,Ryan Villareal,Santa Gertrudis Academy,63.5,120.2,74.84,124.74,319.78,Single-ply,SBD,M
Junior Varsity,67.13,3,Jose Ruvalcaba,Laredo Johnson,59.96,108.86,63.5,142.88,315.25,Single-ply,SBD,M
Junior Varsity,67.13,4,Javier Ledesma,Laredo United,63.05,120.2,70.31,120.2,310.71,Single-ply,SBD,M
Junior Varsity,67.13,5,Servero Morales,Laredo Nixon,66.22,108.86,68.04,129.27,306.17,Single-ply,SBD,M
Junior Varsity,67.13,6,Jerry Gonzalez,Laredo United,61.69,108.86,61.23,129.27,299.37,Single-ply,SBD,M
Junior Varsity,67.13,7,Robert Garcia,Laredo Alexander,66.68,102.06,68.04,127.01,297.1,Single-ply,SBD,M
Junior Varsity,67.13,8,Lloyd Soto,Laredo United,61.69,95.25,56.7,117.93,269.89,Single-ply,SBD,M
Junior Varsity,67.13,9,Jonathan Lomeli,Laredo Johnson,63.5,86.18,58.97,102.06,247.21,Single-ply,SBD,M
Junior Varsity,67.13,10,Andrew Gonzalez,Laredo Alexander,63.96,83.91,52.16,83.91,219.99,Single-ply,SBD,M
Junior Varsity,74.84,1,Albert Garcia,Laredo Johnson,69.4,145.15,88.45,142.88,376.48,Single-ply,SBD,M
Junior Varsity,74.84,2,Juan Gutierrez,Laredo United,72.12,129.27,77.11,136.08,342.46,Single-ply,SBD,M
Junior Varsity,74.84,3,Antonio Garza,Laredo Johnson,69.85,113.4,86.18,133.81,333.39,Single-ply,SBD,M
Junior Varsity,74.84,4,Jose Galvez,Laredo Nixon,73.03,115.67,68.04,140.61,324.32,Single-ply,SBD,M
Junior Varsity,74.84,5,Gilbert Cardenas,Laredo Nixon,72.12,104.33,68.04,147.42,319.78,Single-ply,SBD,M
Junior Varsity,74.84,6,Erik Rocha,Santa Gertrudis Academy,69.4,115.67,65.77,108.86,290.3,Single-ply,SBD,M
Junior Varsity,74.84,7,Carlos Huerta,Laredo Alexander,69.85,79.38,68.04,95.25,242.67,Single-ply,SBD,M
Junior Varsity,82.1,1,Oscar Monroy,Laredo Nixon,81.65,136.08,83.91,136.08,356.07,Single-ply,SBD,M
Junior Varsity,82.1,2,Ismael Espinosa,Laredo Johnson,78.02,120.2,74.84,129.27,324.32,Single-ply,SBD,M
Junior Varsity,82.1,3,Mario Valdez,Laredo Nixon,76.66,111.13,68.04,142.88,322.05,Single-ply,SBD,M
Junior Varsity,82.1,4,David Macias,Laredo United,75.75,113.4,65.77,136.08,315.25,Single-ply,SBD,M
Junior Varsity,82.1,5,Carlos Zapata,Laredo United,77.11,99.79,68.04,142.88,310.71,Single-ply,SBD,M
Junior Varsity,82.1,6,Joshua Rodriguez,Laredo Alexander,75.75,79.38,61.23,65.77,206.38,Single-ply,SBD,M
Junior Varsity,89.81,1,Santino Palizo,Laredo Alexander,86.64,92.99,79.38,115.67,288.03,Single-ply,SBD,M
Junior Varsity,89.81,DQ,Jorge Villalobos,Laredo Martin,85.28,,,,,Single-ply,SBD,M
Junior Varsity,89.81,DQ,Luis Aguirre,Laredo Martin,89.81,,,,,Single-ply,SBD,M
Junior Varsity,99.79,1,Isai Morales,Laredo United,98.88,124.74,88.45,138.35,351.53,Single-ply,SBD,M
Junior Varsity,99.79,2,Jorge Galvan,Laredo Johnson,94.35,117.93,74.84,151.95,344.73,Single-ply,SBD,M
Junior Varsity,99.79,3,Javier Rodriguez,Laredo Nixon,90.26,129.27,63.5,142.88,335.66,Single-ply,SBD,M
Junior Varsity,99.79,4,Kristian Korrodi,Laredo Alexander,96.62,97.52,83.91,124.74,306.17,Single-ply,SBD,M
Junior Varsity,99.79,5,John David Guerrero,Santa Gertrudis Academy,96.62,120.2,65.77,111.13,297.1,Single-ply,SBD,M
Junior Varsity,99.79,6,Cesar Castaneda,Laredo United,94.8,102.06,52.16,113.4,267.62,Single-ply,SBD,M
Junior Varsity,109.77,1,Diego Meza,Laredo United,105.23,142.88,99.79,156.49,399.16,Single-ply,SBD,M
Junior Varsity,109.77,2,Jerremy Ramirez,Laredo United,105.23,147.42,86.18,161.03,394.63,Single-ply,SBD,M
Junior Varsity,109.77,3,Victor Flores,Laredo Johnson,100.24,142.88,86.18,142.88,371.95,Single-ply,SBD,M
Junior Varsity,109.77,4,Christian Gonzalez,Laredo Nixon,108.86,117.93,61.23,167.83,347,Single-ply,SBD,M
Junior Varsity,109.77,5,Mathew Vasquez,Laredo Alexander,106.59,99.79,79.38,142.88,322.05,Single-ply,SBD,M
Junior Varsity,109.77,6,Luis Gonzalez,Laredo Alexander,109.77,79.38,81.65,102.06,263.08,Single-ply,SBD,M
Junior Varsity,124.74,1,Myriel Jaramillo,Laredo Johnson,113.85,165.56,86.18,154.22,405.97,Single-ply,SBD,M
Junior Varsity,124.74,2,Oziel Lugo,Laredo Nixon,120.2,124.74,79.38,154.22,358.34,Single-ply,SBD,M
Junior Varsity,124.74,3,Frank Ramirez,Laredo Cigarroa,121.11,129.27,72.57,142.88,344.73,Single-ply,SBD,M
Junior Varsity,124.74,4,Placido Hinojosa,Santa Gertrudis Academy,122.47,129.27,74.84,117.93,322.05,Single-ply,SBD,M
Junior Varsity,124.74,5,Joseph Lopez,Laredo Nixon,111.58,83.91,56.7,140.61,281.23,Single-ply,SBD,M
Junior Varsity,124.74,6,Richard Arredondo,Laredo Alexander,110.68,92.99,83.91,102.06,278.96,Single-ply,SBD,M
Junior Varsity,124.74+,1,Luis Barron,Laredo Johnson,131.54,192.78,111.13,183.7,487.61,Single-ply,SBD,M
