Place,Name,CyrillicName,Country,BodyweightKg,Squat1Kg,Squat2Kg,Squat3Kg,Squat4Kg,Bench1Kg,Bench2Kg,Bench3Kg,Bench4Kg,Deadlift1Kg,Deadlift2Kg,Deadlift3Kg,Deadlift4Kg,TotalKg,WeightClassKg,Division,Sex,Event,Equipment,Best3SquatKg,Best3BenchKg,Best3DeadliftKg,BirthYear
1,Kim Tarverdiev,Кім Тарвердієв,Ukraine,43.45,30,,,,30,-35,-35,,30,,,,90,44,Amateur Children 9,M,SBD,Wraps,30.0,30.0,30.0,2008
1,Evgeniy Kurinniy,Євгеній Курінний,Ukraine,29.5,35,40,45,,20,22.5,25,,55,60,70,,140,44,Amateur Children 10,M,SBD,Wraps,45.0,25.0,70.0,2008
2,Daniil Matvienko,Данііл Матвієнко,Ukraine,31,35,40,45,,27.5,-30,30,,60,-65,65,,140,44,Amateur Children 10,M,SBD,Wraps,45.0,30.0,65.0,2007
1,Oleksandr Plyuta,Олександр Плюта,Ukraine,44,55,60,65,,30,35,-40,,80,85,90,,190,44,Amateur Children 11-12,M,SBD,Wraps,65.0,35.0,90.0,2006
1,Sergiy Kurinniy,Сергій Курінний,Ukraine,42.9,65,70,75,,40,45,50,,95,100,105,,230,44,Amateur Teen 13-15,M,SBD,Wraps,75.0,50.0,105.0,2003
2,Oleksandr Dzhulay,Олександр Джулай,Ukraine,37,50,55,60,,30,-35,37.5,,80,85,-90,,182.5,44,Amateur Teen 13-15,M,SBD,Wraps,60.0,37.5,85.0,2003
1,Dmitro Brindin,Дмитро Бриндін,Ukraine,48,85,90,95,,55,60,-67.5,,105,110,-115,,265,48,Amateur Teen 13-15,M,SBD,Wraps,95.0,60.0,110.0,2002
1,Daniїl Brindin,Даніїл Бриндін,Ukraine,53.85,110,115,-120,,70,-72.5,-72.5,,140,-145,,,325,56,Amateur Teen 13-15,M,SBD,Wraps,115.0,70.0,140.0,2002
1,Oleg Benik,Олег Бенік,Ukraine,58.35,75,80,85,,45,50,55,,95,105,110,,250,60,Amateur Teen 13-15,M,SBD,Wraps,85.0,55.0,110.0,2003
1,Vladislav Yolkin,Владислав Йолкін,Ukraine,65.85,105,-112.5,112.5,,57.5,62.5,-65,,120,130,135,,310,,Amateur Teen 13-15,M,SBD,Wraps,112.5,62.5,135.0,2003
2,Igor Voytenko,Ігор Войтенко,Ukraine,63.2,90,100,108.5,,55,60,65,,105,110,120,,293.5,,Amateur Teen 13-15,M,SBD,Wraps,108.5,65.0,120.0,2003
3,Andriy Kramar,Андрій Крамар,Ukraine,66.1,80,85,90,,45,47.5,50,,115,117.5,120,,260,,Amateur Teen 13-15,M,SBD,Wraps,90.0,50.0,120.0,2004
4,Oleksandr Matvienko,Олександр Матвієнко,Ukraine,62.9,65,70,75,,50,52.5,-55,,95,100,105,,232.5,,Amateur Teen 13-15,M,SBD,Wraps,75.0,52.5,105.0,2004
1,Igor Rimarchuk,Ігор Римарчук,Ukraine,68.1,100,110,117.5,,-62.5,62.5,65,,107.5,115,-120,,297.5,75,Amateur Teen 13-15,M,SBD,Wraps,117.5,65.0,115.0,2004
1,Yaroslav Gavyada,Ярослав Гав'Яда,Ukraine,96.6,180,190,195,,90,95,100,,210,220,235,,530,100,Amateur Teen 13-15,M,SBD,Wraps,195.0,100.0,235.0,2003
1,Daniїl Pasichnik,Даніїл Пасічник,Ukraine,70.45,180,200,207.5,,100,105,110,,180,200,-210,,517.5,75,Amateur Teen 16-17,M,SBD,Wraps,207.5,110.0,200.0,2000
1,Nazariy Levitskiy,Назарій Левицький,Ukraine,78.8,140,-160,-160,,105,115,-120,,180,195,-200,,450,,Amateur Teen 16-17,M,SBD,Wraps,140.0,115.0,195.0,2000
DQ,Oleksandr Ovcharenko,Олександр Овчаренко,Ukraine,81.55,40,,,,-117.5,-117.5,-117.5,,-55,,,,,,Amateur Teen 16-17,M,SBD,Wraps,40.0,,,2001
1,Ivan Gmirya,Іван Гмиря,Ukraine,96.3,-185,185,-200,,105,110,117.5,,170,-182.5,182.5,,485,100,Amateur Teen 16-17,M,SBD,Wraps,185.0,117.5,182.5,2001
1,Maksim Gibets,Максим Гібець,Ukraine,72.95,180,-190,190,,-100,100,-102.5,,185,190,195,,485,75,Amateur Teen 18-19,M,SBD,Wraps,190.0,100.0,195.0,1999
1,Stepan Dolgopoliy,Степан Долгополий,Ukraine,74.6,155,165,175,,100,-107.5,-107.5,,160,170,180,,455,75,Amateur Juniors 20-23,M,SBD,Wraps,175.0,100.0,180.0,1995
2,Andriy Masley,Андрій Маслей,Ukraine,73,120,-130,135,,-85,85,-92.5,,135,147.5,157.5,,377.5,75,Amateur Juniors 20-23,M,SBD,Wraps,135.0,85.0,157.5,1996
DQ,Dmitriy Dudnik,Дмитрий Дудник,Ukraine,74,-160,,,,-100,,,,-150,,,,,75,Amateur Juniors 20-23,M,SBD,Wraps,,,,1994
1,Oleksandr Nayden,Олександр Найден,Ukraine,82.4,200,-210,210,,-105,105,112.5,,205,215,225,,547.5,,Amateur Juniors 20-23,M,SBD,Wraps,210.0,112.5,225.0,1997
2,Bogdan Pavlishak,Богдан Павлишак,Ukraine,76,160,170,175,,105,115,-120,,190,205,210,,500,,Amateur Juniors 20-23,M,SBD,Wraps,175.0,115.0,210.0,1995
3,Vasil Pavlishak,Василь Павлишак,Ukraine,77.6,145,157.5,162.5,,95,102.5,-107.5,,180,190,195,,460,,Amateur Juniors 20-23,M,SBD,Wraps,162.5,102.5,195.0,1997
1,Mikhaylo Korobko,Михайло Коробко,Ukraine,86.75,170,-180,-180,,110,-115,-115,,170,-185,185,,465,90,Amateur Juniors 20-23,M,SBD,Wraps,170.0,110.0,185.0,1997
2,Valentin Grabovik,Валентин Грабовик,Ukraine,89.5,115,125,135,,92.5,100,-112.5,,115,-130,140,,375,90,Amateur Juniors 20-23,M,SBD,Wraps,135.0,100.0,140.0,1998
1,Artem Cheberyak,Артем Чеберяк,Ukraine,95.6,160,175,-182.5,,115,-120,-120,,170,185,-197.5,,475,100,Amateur Juniors 20-23,M,SBD,Wraps,175.0,115.0,185.0,1994
1,Yuriy Ivanishin,Юрій Іванишин,Ukraine,105.35,180,-195,200,,140,-150,150,,190,200,-230,,550,110,Amateur Juniors 20-23,M,SBD,Wraps,200.0,150.0,200.0,1996
1,Kim Tarverdiev,Кім Тарвердієв,Ukraine,43.45,30,,,,30,-35,-35,,30,,,,90,44,Amateur Open,M,SBD,Wraps,30.0,30.0,30.0,2008
1,Maksim Gibets,Максим Гібець,Ukraine,72.95,180,-190,190,,-100,100,-102.5,,185,190,195,,485,75,Amateur Open,M,SBD,Wraps,190.0,100.0,195.0,1999
2,Stepan Dolgopoliy,Степан Долгополий,Ukraine,74.6,155,165,175,,100,-107.5,-107.5,,160,170,180,,455,75,Amateur Open,M,SBD,Wraps,175.0,100.0,180.0,1995
DQ,Dmitriy Dudnik,Дмитрий Дудник,Ukraine,74,-160,,,,-100,,,,-150,,,,,75,Amateur Open,M,SBD,Wraps,,,,1994
1,Vitaliy Titarenko,Віталій Титаренко,Ukraine,79.55,185,195,200,,125,132.5,135,,210,-220,220,,555,,Amateur Open,M,SBD,Wraps,200.0,135.0,220.0,1990
2,Volodimir Rudakevich,Володимир Рудакевич,Ukraine,76.9,150,175,-195,,130,137.5,142.5,,200,225,-232.5,,542.5,,Amateur Open,M,SBD,Wraps,175.0,142.5,225.0,1988
3,Oleksandr Bezay,Олександр Безай,Ukraine,77.7,160,170,175,,85,95,105,,180,190,200,,480,,Amateur Open,M,SBD,Wraps,175.0,105.0,200.0,1988
4,Vadim Doroshenko,Вадим Дорошенко,Ukraine,76.3,155,165,175,,90,100,-105,,165,175,185,,460,,Amateur Open,M,SBD,Wraps,175.0,100.0,185.0,1990
DQ,Oleksandr Ovcharenko,Олександр Овчаренко,Ukraine,81.55,40,,,,-117.5,-117.5,-117.5,,-55,,,,,,Amateur Open,M,SBD,Wraps,40.0,,,2001
1,Oleg Derlyuk,Олег Дерлюк,Ukraine,87.2,260,-282.5,282.5,,132.5,140,-145,,240,262.5,277.5,,700,90,Amateur Open,M,SBD,Wraps,282.5,140.0,277.5,1992
2,Sergiy Sudoma,Сергій Судома,Ukraine,88.55,180,190,-200,,120,-130,-130,,205,220,230,,540,90,Amateur Open,M,SBD,Wraps,190.0,120.0,230.0,1985
1,Oleksandr Lisovskiy,Олександр Лісовський,Ukraine,94.6,235,245,-255,,147.5,155,160,,252.5,265,-275.5,,670,100,Amateur Open,M,SBD,Wraps,245.0,160.0,265.0,1990
2,Evgeniy Omelyanovskiy,Євгеній Омельяновський,Ukraine,100,200,220,-230,,147.5,-157.5,-157.5,,230,250,-260,,617.5,100,Amateur Open,M,SBD,Wraps,220.0,147.5,250.0,1989
3,Vitaliy Meserenko,Віталій Месеренко,Ukraine,94.3,210,-230,-235,,160,167.5,-172.5,,205,215,-240,,592.5,100,Amateur Open,M,SBD,Wraps,210.0,167.5,215.0,1976
1,Sergiy Gaydrikh,Сергій Гайдрих,Ukraine,107.25,270,285,-300,,165,170,-172.5,,280,290,-295,,745,110,Amateur Open,M,SBD,Wraps,285.0,170.0,290.0,1993
2,Sergiy Bessel,Сергій Бессель,Ukraine,107.5,237.5,-245,245,,177.5,182.5,-185,,245,255,267.5,-268.5,695,110,Amateur Open,M,SBD,Wraps,245.0,182.5,267.5,1984
1,Danilo Udovik,Данило Удовик,Ukraine,113.45,197.5,205,-210,,130,137.5,-140,,210,222.5,227.5,,570,125,Amateur Open,M,SBD,Wraps,205.0,137.5,227.5,1992
1,Sergiy Sudoma,Сергій Судома,Ukraine,88.55,180,190,-200,,120,-130,-130,,205,220,230,,540,90,Amateur Submasters 33-39,M,SBD,Wraps,190.0,120.0,230.0,1985
1,Ivan Pirozhenko,Іван Піроженко,Ukraine,94.75,170,-190,190,,120,130,-135,,180,200,210,,530,100,Amateur Submasters 33-39,M,SBD,Wraps,190.0,130.0,210.0,1983
1,Vyacheslav Vakhrushev,Вячеслав Вахрушев,Ukraine,80.15,-160,170,175,,125,130,-140,,160,170,175,,480,,Amateur Masters 40-44,M,SBD,Wraps,175.0,130.0,175.0,1977
1,Sergiy Shevchenko,Сергій Шевченко,Ukraine,87.7,-162.5,-162.5,162.5,,105,110,112.5,,165,175,-182.5,,450,90,Amateur Masters 40-44,M,SBD,Wraps,162.5,112.5,175.0,1973
1,Vitaliy Meserenko,Віталій Месеренко,Ukraine,94.3,210,-230,-235,,160,167.5,-172.5,,205,215,-240,,592.5,100,Amateur Masters 40-44,M,SBD,Wraps,210.0,167.5,215.0,1976
2,Mikhaylo Lobov,Михайло Лобов,Ukraine,98.8,160,-180,180,,130,-135,-135,,180,215,225,,535,100,Amateur Masters 40-44,M,SBD,Wraps,180.0,130.0,225.0,1978
1,Gennadiy Petrenko,Геннадій Петренко,Ukraine,74.4,-150,-160,160,,80,87.5,92.5,,180,195,200,,452.5,75,Amateur Masters 55-59,M,SBD,Wraps,160.0,92.5,200.0,1959
2,Volodimir Morozevich,Володимир Морозевич,Ukraine,68.9,80,100,-110,,60,70,75,,100,110,112.5,,287.5,75,Amateur Masters 55-59,M,SBD,Wraps,100.0,75.0,112.5,1958
1,Volodimir Chepurniy,Володимир Чепурний,Ukraine,82.35,180,190,195,,95,102.5,-105,,205,215,225,,522.5,,Amateur Masters 55-59,M,SBD,Wraps,195.0,102.5,225.0,1960
2,Mikhaylo Burkov,Михайло Бурков,Ukraine,80.6,170,180,185,,105,-110,112.5,,170,180,192.5,,490,,Amateur Masters 55-59,M,SBD,Wraps,185.0,112.5,192.5,1963
1,Mikola Brindulya,Микола Бриндуля,Ukraine,108.1,130,150,157.5,,110,120,127.5,,150,170,185,,470,110,Amateur Masters 60-64,M,SBD,Wraps,157.5,127.5,185.0,1953
1,Oleksandr Ostrovskiy,Олександр Островський,Ukraine,79.7,130,140,,,80,85,-90,,135,145,155,,380,,Amateur Masters 65-69,M,SBD,Wraps,140.0,85.0,155.0,1953
1,Yuriy Starkov,Юрій Старков,Ukraine,81.5,130,140,150,,100,105,110,,190,200,210,,470,,Amateur Masters 70-74,M,SBD,Wraps,150.0,110.0,210.0,1947
1,Mikhaylo Burkov,Михайло Бурков,Ukraine,80.6,170,180,185,,105,-110,112.5,,170,180,192.5,,490,,Amateur Military/Fire/Police,M,SBD,Wraps,185.0,112.5,192.5,1963
1,Dana Tsikhonya,Дана Цихоня,Ukraine,66.15,-70,80,90,,45,50,-55,,80,85,95,,235,,Amateur Teen 13-15,F,SBD,Wraps,90.0,50.0,95.0,2003
1,Nataliya Kondratenko,Наталія Кондратенко,Ukraine,50.45,55,60,65,,30,-35,-35,,70,80,90,,185,52,Amateur Teen 16-17,F,SBD,Wraps,65.0,30.0,90.0,2002
1,Violetta Korolyuk,Віолетта Королюк,Ukraine,50.3,45,52.5,55,,25,-30,-30,,45,55,62.5,,142.5,52,Amateur Teen 18-19,F,SBD,Wraps,55.0,25.0,62.5,1999
1,Sevda Kondrashova,Севда Кондрашова,Ukraine,47,65,72.5,75,,37.5,40,-42.5,,75,82.5,-87.5,,197.5,48,Amateur Juniors 20-23,F,SBD,Wraps,75.0,40.0,82.5,1995
1,Arina Oleynik,Аріна Олейник,Ukraine,72.6,100,110,115,,52.5,57.5,60,,120,130,140,,315,75,Amateur Juniors 20-23,F,SBD,Wraps,115.0,60.0,140.0,1998
1,Tetyana Stepatska,Тетяна Степацька,Ukraine,47.75,100,110,-115,,45,50,-52.5,,80,90,-97.5,,250,48,Amateur Open,F,SBD,Wraps,110.0,50.0,90.0,1989
1,Katerina Yarushina,Катерина Ярушина,Ukraine,52,90,-100,-100,,42.5,45,47.5,,107.5,115,-120,,252.5,52,Amateur Open,F,SBD,Wraps,90.0,47.5,115.0,1990
2,Violetta Korolyuk,Віолетта Королюк,Ukraine,50.3,45,52.5,55,,25,-30,-30,,45,55,62.5,,142.5,52,Amateur Open,F,SBD,Wraps,55.0,25.0,62.5,1999
1,Alla Ryazanova,Алла Рязанова,Ukraine,55.25,90,-100,105,,42.5,50,-52.5,,130,142.5,150,,305,56,Amateur Open,F,SBD,Wraps,105.0,50.0,150.0,1979
2,Marina Matvienko,Марина Матвієнко,Ukraine,55.8,90,95,-100,,60,65,-70,,100,110,120,,280,56,Amateur Open,F,SBD,Wraps,95.0,65.0,120.0,1989
1,Nataliya Sokurenko,Наталія Сокуренко,Ukraine,57.75,140,150,155,,75,80,-82.5,,140,-150,150,,385,60,Amateur Open,F,SBD,Wraps,155.0,80.0,150.0,1981
2,Inna Lazorenko,Інна Лазоренко,Ukraine,59.9,92.5,102.5,-110,,47.5,52.5,-55,,115,125,130,,285,60,Amateur Open,F,SBD,Wraps,102.5,52.5,130.0,1993
3,Olga Drozdova,Ольга Дроздова,Ukraine,59.7,80,-90,90,,40,-47.5,-47.5,,130,-140,140,,270,60,Amateur Open,F,SBD,Wraps,90.0,40.0,140.0,1988
1,Oksana Ostroushko,Оксана Остроушко,Ukraine,61.3,90,100,-105,,60,-65,-65,,100,110,115,,275,,Amateur Open,F,SBD,Wraps,100.0,60.0,115.0,1983
2,Oksana Muzika,Оксана Музика,Ukraine,67.5,35,,,,62.5,67.5,-70,,55,,,,157.5,,Amateur Open,F,SBD,Wraps,35.0,67.5,55.0,1969
1,Tetyana Dudnik,Тетяна Дудник,Ukraine,75,35,-40,,,72.5,80,-87.5,,55,,,,170,75,Amateur Open,F,SBD,Wraps,35.0,80.0,55.0,1983
1,Tetyana Khomyak,Тетяна Хомяк,Ukraine,79.1,95,100,105,,62.5,67.5,72.5,,105,112.5,117.5,,295,,Amateur Open,F,SBD,Wraps,105.0,72.5,117.5,1979
1,Inna Zhovta,Інна Жовта,Ukraine,89.8,-125,125,132.5,,67.5,72.5,-77.5,,130,140,145,,350,90,Amateur Open,F,SBD,Wraps,132.5,72.5,145.0,1981
1,Tetyana Dudnik,Тетяна Дудник,Ukraine,75,35,-40,,,72.5,80,-87.5,,55,,,,170,75,Amateur Submasters 33-39,F,SBD,Wraps,35.0,80.0,55.0,1983
1,Tetyana Khomyak,Тетяна Хомяк,Ukraine,79.1,95,100,105,,62.5,67.5,72.5,,105,112.5,117.5,,295,,Amateur Submasters 33-39,F,SBD,Wraps,105.0,72.5,117.5,1979
1,Oksana Muzika,Оксана Музика,Ukraine,67.5,35,,,,62.5,67.5,-70,,55,,,,157.5,,Amateur Masters 45-49,F,SBD,Wraps,35.0,67.5,55.0,1969
1,Olena Gibets,Олена Гібець,Ukraine,81.8,100,-110,110,,50,-60,60,,-100,120,-130,,290,,Amateur Masters 50-54,F,SBD,Wraps,110.0,60.0,120.0,1967
1,Dmitro Rozhanskiy,Дмитро Рожанський,Ukraine,58.05,60,65,70,,50,55,-57.5,,75,85,95,,220,60,Pro Teen 13-15,M,SBD,Wraps,70.0,55.0,95.0,2004
1,Vitaliy Stets,Віталій Стець,Ukraine,95.15,210,-230,-235,-235,-130,135,150,,280,-300,-300,,640,100,Pro Teen 18-19,M,SBD,Wraps,210.0,150.0,280.0,1998
1,Nazariy Shargan,Назарій Шарган,Ukraine,106.6,200,215,225,,155,165,170,,230,245,270,,665,110,Pro Juniors 20-23,M,SBD,Wraps,225.0,170.0,270.0,1996
1,Andriy Boyko,Андрій Бойко,Ukraine,74.25,210,222.5,230,,110,115,120,,210,220,-230,,570,75,Pro Open,M,SBD,Wraps,230.0,120.0,220.0,1993
1,Artur Dubinin,Артур Дубінін,Ukraine,80.3,220,230,-240,,150,155,-160,,240,,,,625,,Pro Open,M,SBD,Wraps,230.0,155.0,240.0,1987
2,Ivan Kozir,Иван Козырь,Ukraine,79.8,180,185,-190,,165,170,-175,,200,212.5,225,,580,,Pro Open,M,SBD,Wraps,185.0,170.0,225.0,1986
1,Oleksii Melnyk,Олексій Мельник,Ukraine,89.3,330,-350,-355,,190,202.5,-210,,300,320,-340,,852.5,90,Pro Open,M,SBD,Wraps,330.0,202.5,320.0,1990
2,Mikola Tishuk,Микола Тишук,Ukraine,87.8,240,-260,-260,,150,-160,-160,,240,260,275,,665,90,Pro Open,M,SBD,Wraps,240.0,150.0,275.0,1992
1,Viktor Rublov,Віктор Рубльов,Ukraine,98.9,240,255,-270,,-165,170,180,,240,255,265,,700,100,Pro Open,M,SBD,Wraps,255.0,180.0,265.0,1975
2,Mikola Matvienko,Микола Матвієнко,Ukraine,99.85,240,250,260,,160,170,175,,240,250,260,,695,100,Pro Open,M,SBD,Wraps,260.0,175.0,260.0,1984
3,Vitaliy Stets,Віталій Стець,Ukraine,95.15,210,-230,-235,-235,-130,135,150,,280,-300,-300,,640,100,Pro Open,M,SBD,Wraps,210.0,150.0,280.0,1998
1,Ruslan Vovna,Руслан Вовна,Ukraine,109.9,260,272.5,280,,145,155,-165,,250,270,-282.5,,705,110,Pro Open,M,SBD,Wraps,280.0,155.0,270.0,1992
2,Andriy Tarnovskiy,Андрій Тарновський,Ukraine,109,-230,230,245,,180,187.5,-192.5,,230,245,-255,,677.5,110,Pro Open,M,SBD,Wraps,245.0,187.5,245.0,1989
1,Oleksandr Gensitskiy,Олександр Генсіцький,Ukraine,142.35,280,300,,,220,-230,,,250,270,280,,800,140+,Pro Open,M,SBD,Wraps,300.0,220.0,280.0,1975
1,Viktor Rublov,Віктор Рубльов,Ukraine,98.9,240,255,-270,,-165,170,180,,240,255,265,,700,100,Pro Masters 40-44,M,SBD,Wraps,255.0,180.0,265.0,1975
1,Oleg Cherchel,,Moldova,102.7,220,240,-250,,120,130,-135,,205,-215,-215,,575,110,Pro Masters 40-44,M,SBD,Wraps,240.0,130.0,205.0,1978
1,Oleksandr Gensitskiy,Олександр Генсіцький,Ukraine,142.35,280,300,,,220,-230,,,250,270,280,,800,140+,Pro Masters 40-44,M,SBD,Wraps,300.0,220.0,280.0,1975
1,Oleksandr Popovich,Олександр Попович,Ukraine,75,140,160,180,,120,132.5,-142.5,,150,170,187.5,,500,75,Pro Masters 45-49,M,SBD,Wraps,180.0,132.5,187.5,1972
1,Oleksandr Molodid,Олександр Молодід,Ukraine,96.2,110,120,125,,-90,95,-100,,175,180,190,,410,100,Pro Masters 45-49,M,SBD,Wraps,125.0,95.0,190.0,1969
1,Andriy Boyko,Андрій Бойко,Ukraine,74.25,210,222.5,230,,110,115,120,,210,220,-230,,570,75,Pro Military/Fire/Police,M,SBD,Wraps,230.0,120.0,220.0,1993
2,Oleksandr Popovich,Олександр Попович,Ukraine,75,140,160,180,,120,132.5,-142.5,,150,170,187.5,,500,75,Pro Military/Fire/Police,M,SBD,Wraps,180.0,132.5,187.5,1972
1,Ivan Kozir,Иван Козырь,Ukraine,79.8,180,185,-190,,165,170,-175,,200,212.5,225,,580,,Pro Military/Fire/Police,M,SBD,Wraps,185.0,170.0,225.0,1986
1,Mariya Kravchuk,Марія Кравчук,Ukraine,55.75,140,-147.5,-150,,55,-67.5,-70,,145,-155,-155,,340,56,Pro Open,F,SBD,Wraps,140.0,55.0,145.0,1983
1,Yuliya Malinovska,Юлія Маліновська,Ukraine,59.7,-132.5,132.5,140,,72.5,-75,,,150,160,-165,,372.5,60,Pro Open,F,SBD,Wraps,140.0,72.5,160.0,1984
1,Yuliya Malinovska,Юлія Маліновська,Ukraine,59.7,-132.5,132.5,140,,72.5,-75,,,150,160,-165,,372.5,60,Pro Submasters 33-39,F,SBD,Wraps,140.0,72.5,160.0,1984
DQ,Vitaliy Menchuk,Віталій Менчук,Ukraine,94.15,-275,-275,-275,,-230,,,,-230,,,,,100,Pro Teen 18-19,M,SBD,Multi-ply,,,,1998
DQ,Volodimir Rozhanskiy,Володимир Рожанський,Ukraine,112.45,-325,-325,-340,,-240,,,,-300,,,,,125,Pro Open,M,SBD,Multi-ply,,,,1980
1,Kim Tarverdiev,Кім Тарвердієв,Ukraine,43.45,,,,,30,-35,-35,,,,,,30,44,Amateur Children 9,M,B,Raw,,30.0,,2008
1,Timur Kukhta,Тимур Кухта,Ukraine,50.65,,,,,50,-60,-60,,,,,,50,52,Amateur Children 11-12,M,B,Raw,,50.0,,2005
1,Alan Kvyatkovskiy,Алан Квятковський,Ukraine,55,,,,,45,47.5,50,,,,,,50,56,Amateur Children 11-12,M,B,Raw,,50.0,,2005
1,Stanislav Brovarenko,Станіслав Броваренко,Ukraine,52,,,,,50,55,57.5,,,,,,57.5,52,Amateur Teen 13-15,M,B,Raw,,57.5,,2003
1,Dmitro Melnik,Дмитро Мельник,Ukraine,63.15,,,,,70,75,-80,,,,,,75,,Amateur Teen 13-15,M,B,Raw,,75.0,,2003
2,Mikola Linnik,Микола Линник,Ukraine,62.9,,,,,72.5,-77.5,-77.5,,,,,,72.5,,Amateur Teen 13-15,M,B,Raw,,72.5,,2003
1,Igor Rimarchuk,Ігор Римарчук,Ukraine,68.1,,,,,-62.5,62.5,65,,,,,,65,75,Amateur Teen 13-15,M,B,Raw,,65.0,,2004
1,Yaroslav Gavyada,Ярослав Гав'Яда,Ukraine,96.6,,,,,90,95,100,,,,,,100,100,Amateur Teen 13-15,M,B,Raw,,100.0,,2003
1,Artur Kukhta,Артур Кухта,Ukraine,52,,,,,70,-80,-80,,,,,,70,52,Amateur Teen 16-17,M,B,Raw,,70.0,,2002
1,Oleksandr Ovcharenko,Олександр Овчаренко,Ukraine,81.55,,,,,110,117.5,-120,,,,,,117.5,,Amateur Teen 16-17,M,B,Raw,,117.5,,2001
2,Yuriy Broda,Юрій Брода,Ukraine,77.5,,,,,55,65,-77.5,,,,,,65,,Amateur Teen 16-17,M,B,Raw,,65.0,,2001
1,Vasil Kovalchuk,Василь Ковальчук,Ukraine,75,,,,,132.5,-137.5,-137.5,,,,,,132.5,75,Amateur Teen 18-19,M,B,Raw,,132.5,,1999
2,Ivan Yarmolyuk,Іван Ярмолюк,Ukraine,73.15,,,,,90,97.5,-102.5,,,,,,97.5,75,Amateur Teen 18-19,M,B,Raw,,97.5,,1998
1,Petro Kalinovskiy,Петро Калиновський,Ukraine,64.45,,,,,-115,115,-125,,,,,,115,,Amateur Juniors 20-23,M,B,Raw,,115.0,,1996
2,Mikola Metekha,Микола Метеха,Ukraine,66.45,,,,,95,105,110,,,,,,110,,Amateur Juniors 20-23,M,B,Raw,,110.0,,1996
1,Stepan Dolgopoliy,Степан Долгополий,Ukraine,74.6,,,,,100,-107.5,-107.5,,,,,,100,75,Amateur Juniors 20-23,M,B,Raw,,100.0,,1995
1,Mikola Yur'Ev,Микола Юр'Єв,Ukraine,80.5,,,,,-145,150,-152.5,,,,,,150,,Amateur Juniors 20-23,M,B,Raw,,150.0,,1995
2,Oleksandr Nayden,Олександр Найден,Ukraine,82.4,,,,,-105,105,112.5,,,,,,112.5,,Amateur Juniors 20-23,M,B,Raw,,112.5,,1997
1,Valentin Grabovik,Валентин Грабовик,Ukraine,89.5,,,,,92.5,100,-112.5,,,,,,100,90,Amateur Juniors 20-23,M,B,Raw,,100.0,,1998
1,Roman Taradyuk,Роман Тарадюк,Ukraine,122.1,,,,,162.5,182.5,-187.5,,,,,,182.5,125,Amateur Juniors 20-23,M,B,Raw,,182.5,,1994
1,Kim Tarverdiev,Кім Тарвердієв,Ukraine,43.45,,,,,30,-35,-35,,,,,,30,44,Amateur Open,M,B,Raw,,30.0,,2008
1,Sergiy Melnik,Сергій Мельник,Ukraine,66.4,,,,,135,-140,-140,,,,,,135,,Amateur Open,M,B,Raw,,135.0,,1982
2,Igor Trofimchuk,Ігор Трофимчук,Ukraine,66.85,,,,,125,130,135,,,,,,135,,Amateur Open,M,B,Raw,,135.0,,1978
3,Roman Brovkov,Роман Бровков,Ukraine,63.7,,,,,-75,75,85,,,,,,85,,Amateur Open,M,B,Raw,,85.0,,1988
1,Maksim Obertas,Максим Обертас,Ukraine,73.8,,,,,145,152.5,-157.5,,,,,,152.5,75,Amateur Open,M,B,Raw,,152.5,,1988
2,Vasil Kovalchuk,Василь Ковальчук,Ukraine,75,,,,,132.5,-137.5,-137.5,,,,,,132.5,75,Amateur Open,M,B,Raw,,132.5,,1999
3,Yuriy Romanov,Юрій Романов,Ukraine,72.9,,,,,110,120,-125,,,,,,120,75,Amateur Open,M,B,Raw,,120.0,,1992
4,Andriy Yamnich,Андрій Ямнич,Ukraine,70.1,,,,,75,85,-95,,,,,,85,75,Amateur Open,M,B,Raw,,85.0,,1993
1,Kostyantin Kurtsev,Костянтин Курцев,Ukraine,81.55,,,,,140,145,-150,,,,,,145,,Amateur Open,M,B,Raw,,145.0,,1985
2,Volodimir Rudakevich,Володимир Рудакевич,Ukraine,76.9,,,,,130,137.5,142.5,,,,,,142.5,,Amateur Open,M,B,Raw,,142.5,,1988
3,Andriy Silyuk,Андрій Силюк,Ukraine,79.9,,,,,-132.5,132.5,-140,,,,,,132.5,,Amateur Open,M,B,Raw,,132.5,,1990
4,Evgen Kunpan,Євген Кунпан,Ukraine,80.55,,,,,-132.5,132.5,-135,,,,,,132.5,,Amateur Open,M,B,Raw,,132.5,,1989
5,Ezhi Kononchuk,Єжи Кононьчук,Ukraine,80.9,,,,,-132.5,-132.5,132.5,,,,,,132.5,,Amateur Open,M,B,Raw,,132.5,,1993
6,Oleksandr Ovcharenko,Олександр Овчаренко,Ukraine,81.55,,,,,110,117.5,-120,,,,,,117.5,,Amateur Open,M,B,Raw,,117.5,,2001
1,Oleksandr Birsa,Олександр Бирса,Ukraine,87.05,,,,,-145,150,-157.5,,,,,,150,90,Amateur Open,M,B,Raw,,150.0,,1987
2,Oleksandr Nikulin,Олександр Нікулін,Ukraine,87.55,,,,,150,-157.5,-157.5,,,,,,150,90,Amateur Open,M,B,Raw,,150.0,,1983
3,Yuriy Filonenko,Юрій Філоненко,Ukraine,87.1,,,,,122.5,127.5,130,,,,,,130,90,Amateur Open,M,B,Raw,,130.0,,1954
4,Roman Timchuk,Роман Тимчук,Ukraine,89,,,,,-120,125,-130,,,,,,125,90,Amateur Open,M,B,Raw,,125.0,,1990
DQ,Sergiy Krishchuk,Сергій Крищук,Ukraine,88.1,,,,,-150,-150,-150,,,,,,,90,Amateur Open,M,B,Raw,,,,1975
DQ,Oleg Zakharchuk,Олег Захарчук,Ukraine,90,,,,,-80,-80,-80,,,,,,,90,Amateur Open,M,B,Raw,,,,1980
1,Artem Garanzha,Артем Гаранжа,Ukraine,99.9,,,,,165,175,185,,,,,,185,100,Amateur Open,M,B,Raw,,185.0,,1986
2,Evgen Filima,Євген Филима,Ukraine,100,,,,,162.5,167.5,172.5,,,,,,172.5,100,Amateur Open,M,B,Raw,,172.5,,1990
3,Mikola Gorbachov,Микола Горбачов,Ukraine,93.15,,,,,160,165,170,,,,,,170,100,Amateur Open,M,B,Raw,,170.0,,1962
4,Vitaliy Meserenko,Віталій Месеренко,Ukraine,94.3,,,,,160,167.5,-172.5,,,,,,167.5,100,Amateur Open,M,B,Raw,,167.5,,1976
5,Dmitro Mokich,Дмитро Мокич,Ukraine,94.5,,,,,155,165,-172.5,,,,,,165,100,Amateur Open,M,B,Raw,,165.0,,1987
6,Valentin Slutskiy,Валентин Слуцький,Ukraine,98.1,,,,,155,-167.5,-167.5,,,,,,155,100,Amateur Open,M,B,Raw,,155.0,,1973
7,Sergiy Moysik,Сергій Мойсік,Ukraine,97.8,,,,,142.5,-147.5,-147.5,,,,,,142.5,100,Amateur Open,M,B,Raw,,142.5,,1987
DQ,Vitaliy Demedyuk,Віталій Демедюк,Ukraine,98.5,,,,,-150,,,,,,,,,100,Amateur Open,M,B,Raw,,,,1989
1,Svyatoslav Boychuk,Святослав Бойчук,Ukraine,105.5,,,,,-195,200,-210,,,,,,200,110,Amateur Open,M,B,Raw,,200.0,,1992
2,Sergiy Bessel,Сергій Бессель,Ukraine,107.05,,,,,177.5,182.5,-185,,,,,,182.5,110,Amateur Open,M,B,Raw,,182.5,,1984
3,Oleg Kalinichenko,Олег Калініченко,Ukraine,106.1,,,,,175,180,-182.5,,,,,,180,110,Amateur Open,M,B,Raw,,180.0,,1991
4,Nazar Korzhak,Назар Коржак,Ukraine,103.95,,,,,-170,170,-180,,,,,,170,110,Amateur Open,M,B,Raw,,170.0,,1993
5,Artem Sokolov,Артем Соколов,Ukraine,109.3,,,,,155,165,-175,,,,,,165,110,Amateur Open,M,B,Raw,,165.0,,1976
1,Roman Taradyuk,Роман Тарадюк,Ukraine,122.1,,,,,162.5,182.5,-187.5,,,,,,182.5,125,Amateur Open,M,B,Raw,,182.5,,1994
2,Andriy Danilyuk,Андрій Данилюк,Ukraine,111.4,,,,,130,137.5,145,,,,,,145,125,Amateur Open,M,B,Raw,,145.0,,1982
3,Artur Maslovets,Артур Масловець,Ukraine,119.75,,,,,145,-155,-155,,,,,,145,125,Amateur Open,M,B,Raw,,145.0,,1988
4,Danilo Udovik,Данило Удовик,Ukraine,113.45,,,,,130,137.5,-140,,,,,,137.5,125,Amateur Open,M,B,Raw,,137.5,,1992
1,Oleksandr Shvab,Олександр Шваб,Ukraine,133.1,,,,,125,135,,,,,,,135,140,Amateur Open,M,B,Raw,,135.0,,1976
1,Igor Trofimchuk,Ігор Трофимчук,Ukraine,66.85,,,,,125,130,135,,,,,,135,,Amateur Submasters 33-39,M,B,Raw,,135.0,,1978
1,Mikola Krishun,Микола Крішун,Ukraine,79.5,,,,,130,137.5,142.5,,,,,,142.5,,Amateur Submasters 33-39,M,B,Raw,,142.5,,1983
2,Lyubomir Kogut,Любомир Когут,Ukraine,81.1,,,,,125,132.5,-140,,,,,,132.5,,Amateur Submasters 33-39,M,B,Raw,,132.5,,1983
1,Oleksandr Nikulin,Олександр Нікулін,Ukraine,87.55,,,,,150,-157.5,-157.5,,,,,,150,90,Amateur Submasters 33-39,M,B,Raw,,150.0,,1983
2,Yaroslav Yurkiv,Ярослав Юрків,Ukraine,89.65,,,,,140,-150,-150,,,,,,140,90,Amateur Submasters 33-39,M,B,Raw,,140.0,,1983
DQ,Oleg Zakharchuk,Олег Захарчук,Ukraine,90,,,,,-80,-80,-80,,,,,,,90,Amateur Submasters 33-39,M,B,Raw,,,,1980
1,Mikola Trishkin,Микола Трішкін,Ukraine,97.95,,,,,125,130,132.5,,,,,,132.5,100,Amateur Submasters 33-39,M,B,Raw,,132.5,,1983
1,Andriy Danilyuk,Андрій Данилюк,Ukraine,111.4,,,,,130,137.5,145,,,,,,145,125,Amateur Submasters 33-39,M,B,Raw,,145.0,,1982
DQ,Sergiy Krishchuk,Сергій Крищук,Ukraine,88.1,,,,,-150,-150,-150,,,,,,,90,Amateur Masters 40-44,M,B,Raw,,,,1975
1,Vitaliy Meserenko,Віталій Месеренко,Ukraine,94.3,,,,,160,167.5,-172.5,,,,,,167.5,100,Amateur Masters 40-44,M,B,Raw,,167.5,,1976
2,Valentin Slutskiy,Валентин Слуцький,Ukraine,98.1,,,,,155,-167.5,-167.5,,,,,,155,100,Amateur Masters 40-44,M,B,Raw,,155.0,,1973
1,Artem Sokolov,Артем Соколов,Ukraine,109.3,,,,,155,165,-175,,,,,,165,110,Amateur Masters 40-44,M,B,Raw,,165.0,,1976
2,Vitaliy Shikun,Віталій Шикун,Ukraine,102.5,,,,,140,150,-165,,,,,,150,110,Amateur Masters 40-44,M,B,Raw,,150.0,,1974
1,Oleksandr Shvab,Олександр Шваб,Ukraine,133.1,,,,,125,135,,,,,,,135,140,Amateur Masters 40-44,M,B,Raw,,135.0,,1976
1,Igor Epishev,Ігор Єпішев,Ukraine,73.8,,,,,120,125,-130,,,,,,125,75,Amateur Masters 45-49,M,B,Raw,,125.0,,1969
2,Vadim Koverznev,Вадим Коверзнев,Ukraine,73.7,,,,,95,100,-105,,,,,,100,75,Amateur Masters 45-49,M,B,Raw,,100.0,,1970
1,Mikola Grigorovich,Микола Григорович,Ukraine,95.65,,,,,122.5,127.5,130,,,,,,130,100,Amateur Masters 45-49,M,B,Raw,,130.0,,1969
1,Vitaliy Filonenko,Віталій Філоненко,Ukraine,103.35,,,,,127.5,-135,-135,,,,,,127.5,110,Amateur Masters 50-54,M,B,Raw,,127.5,,1964
1,Mikola Gorbachov,Микола Горбачов,Ukraine,93.15,,,,,160,165,170,,,,,,170,100,Amateur Masters 55-59,M,B,Raw,,170.0,,1962
1,Yuriy Filonenko,Юрій Філоненко,Ukraine,87.1,,,,,122.5,127.5,130,,,,,,130,90,Amateur Masters 60-64,M,B,Raw,,130.0,,1954
1,Oleksandr Ostrovskiy,Олександр Островський,Ukraine,79.7,,,,,80,85,-90,,,,,,85,,Amateur Masters 65-69,M,B,Raw,,85.0,,1953
1,Yuriy Starkov,Юрій Старков,Ukraine,81.5,,,,,100,105,110,,,,,,110,,Amateur Masters 70-74,M,B,Raw,,110.0,,1947
1,Andriy Levitskiy,Андрій Левицький,Ukraine,92.05,,,,,155,167.5,-170,,,,,,167.5,100,Amateur Military/Fire/Police,M,B,Raw,,167.5,,1988
2,Dmitro Mokich,Дмитро Мокич,Ukraine,94.5,,,,,155,165,-172.5,,,,,,165,100,Amateur Military/Fire/Police,M,B,Raw,,165.0,,1987
3,Mikola Grigorovich,Микола Григорович,Ukraine,95.65,,,,,122.5,127.5,130,,,,,,130,100,Amateur Military/Fire/Police,M,B,Raw,,130.0,,1969
1,Vitaliy Filonenko,Віталій Філоненко,Ukraine,103.35,,,,,127.5,-135,-135,,,,,,127.5,110,Amateur Military/Fire/Police,M,B,Raw,,127.5,,1964
1,Ivan Korovitskiy,Іван Коровіцький,Ukraine,99.55,,,,,75,82.5,-95,,,,,,82.5,100,Amateur Paralympian,M,B,Raw,,82.5,,1987
1,Dana Tsikhonya,Дана Цихоня,Ukraine,66.15,,,,,45,50,-55,,,,,,50,,Amateur Teen 13-15,F,B,Raw,,50.0,,2003
1,Yuliya Mukha,Юлія Муха,Ukraine,50.4,,,,,45,50,-52.5,,,,,,50,52,Amateur Teen 18-19,F,B,Raw,,50.0,,1999
1,Irina Usik,Ірина Усик,Ukraine,56.5,,,,,75,-80,-80,,,,,,75,60,Amateur Teen 18-19,F,B,Raw,,75.0,,1998
1,Valeriya Tsyuprik,Валерія Цюприк,Ukraine,54.05,,,,,45,-50,-52.5,,,,,,45,56,Amateur Juniors 20-23,F,B,Raw,,45.0,,1995
1,Mariya Mislivets,Марія Мисливець,Ukraine,57.1,,,,,52.5,57.5,-60,,,,,,57.5,60,Amateur Juniors 20-23,F,B,Raw,,57.5,,1994
1,Oksana Motrunchik,Оксана Мотрунчик,Ukraine,46.8,,,,,45,50,-55,,,,,,50,48,Amateur Open,F,B,Raw,,50.0,,1992
1,Nataliya Melnichuk,Наталія Мельничук,Ukraine,52,,,,,67.5,70,72.5,,,,,,72.5,52,Amateur Open,F,B,Raw,,72.5,,1975
2,Yana Nechaeva,Яна Нечаєва,Ukraine,51.3,,,,,60,-62.5,-62.5,,,,,,60,52,Amateur Open,F,B,Raw,,60.0,,1991
DQ,Liana Kapitula,Ліана Капітула,Ukraine,52,,,,,-55,-55,-55,,,,,,,52,Amateur Open,F,B,Raw,,,,1988
1,Alla Ryazanova,Алла Рязанова,Ukraine,55.25,,,,,42.5,50,-52.5,,,,,,50,56,Amateur Open,F,B,Raw,,50.0,,1979
DQ,Armine Sargsyan,Арміне Саргсян,Ukraine,54,,,,,-45,,,,,,,,,56,Amateur Open,F,B,Raw,,,,1981
1,Nataliya Sokurenko,Наталія Сокуренко,Ukraine,57.75,,,,,75,80,-82.5,,,,,,80,60,Amateur Open,F,B,Raw,,80.0,,1981
2,Olga Drozdova,Ольга Дроздова,Ukraine,59.7,,,,,40,-47.5,-47.5,,,,,,40,60,Amateur Open,F,B,Raw,,40.0,,1988
1,Sofiya Smila,Софія Сміла,Ukraine,64.95,,,,,67.5,70,72.5,,,,,,72.5,,Amateur Open,F,B,Raw,,72.5,,1989
2,Oksana Muzika,Оксана Музика,Ukraine,67.5,,,,,62.5,67.5,-70,,,,,,67.5,,Amateur Open,F,B,Raw,,67.5,,1969
3,Oksana Ostroushko,Оксана Остроушко,Ukraine,61.3,,,,,60,-65,-65,,,,,,60,,Amateur Open,F,B,Raw,,60.0,,1983
1,Tetyana Dudnik,Тетяна Дудник,Ukraine,75,,,,,72.5,80,-87.5,,,,,,80,75,Amateur Open,F,B,Raw,,80.0,,1983
1,Tetyana Khomyak,Тетяна Хомяк,Ukraine,79.1,,,,,62.5,67.5,72.5,,,,,,72.5,,Amateur Open,F,B,Raw,,72.5,,1979
DQ,Armine Sargsyan,Арміне Саргсян,Ukraine,54,,,,,-45,,,,,,,,,56,Amateur Submasters 33-39,F,B,Raw,,,,1981
1,Tetyana Dudnik,Тетяна Дудник,Ukraine,75,,,,,72.5,80,-87.5,,,,,,80,75,Amateur Submasters 33-39,F,B,Raw,,80.0,,1983
1,Tetyana Khomyak,Тетяна Хомяк,Ukraine,79.1,,,,,62.5,67.5,72.5,,,,,,72.5,,Amateur Submasters 33-39,F,B,Raw,,72.5,,1979
1,Nataliya Melnichuk,Наталія Мельничук,Ukraine,52,,,,,67.5,70,72.5,,,,,,72.5,52,Amateur Masters 40-44,F,B,Raw,,72.5,,1975
1,Olena Lyubimova,Олена Любімова,Ukraine,55.4,,,,,57.5,-60,-60,,,,,,57.5,56,Amateur Masters 40-44,F,B,Raw,,57.5,,1975
1,Oksana Muzika,Оксана Музика,Ukraine,67.5,,,,,62.5,67.5,-70,,,,,,67.5,,Amateur Masters 45-49,F,B,Raw,,67.5,,1969
1,Oleg Mikhalskiy,Олег Михальський,Ukraine,40.55,,,,,50,55,-57.5,,,,,,55,44,Pro Teen 13-15,M,B,Raw,,55.0,,2004
1,Yuriy Nich,Юрій Нич,Ukraine,73.6,,,,,67.5,75,85,,,,,,85,75,Pro Teen 13-15,M,B,Raw,,85.0,,2003
1,Maksim Bugir,Максим Бугир,Ukraine,88.3,,,,,72.5,82.5,-92.5,,,,,,82.5,90,Pro Teen 13-15,M,B,Raw,,82.5,,2005
1,Dmitro Shpargala,Дмитро Шпаргала,Ukraine,82,,,,,150,-155,-157.5,,,,,,150,,Pro Juniors 20-23,M,B,Raw,,150.0,,1995
1,Ernest Gromov,Ернест Громов,Ukraine,89.05,,,,,-175,182.5,187.5,,,,,,187.5,90,Pro Juniors 20-23,M,B,Raw,,187.5,,1994
2,Roman Nikolin,Роман Ніколін,Ukraine,83.8,,,,,150,157.5,162.5,,,,,,162.5,90,Pro Juniors 20-23,M,B,Raw,,162.5,,1994
1,Oleksandr Zhariy,Олександр Жарий,Ukraine,65.75,,,,,125,132.5,-137.5,,,,,,132.5,,Pro Open,M,B,Raw,,132.5,,1972
1,Ivan Kozir,Иван Козырь,Ukraine,79.8,,,,,160,170,-175,,,,,,170,,Pro Open,M,B,Raw,,170.0,,1986
2,Viktor Blakitniy,Віктор Блакитний,Ukraine,81.4,,,,,160,170,-175,,,,,,170,,Pro Open,M,B,Raw,,170.0,,1981
1,Oleksandr Onishchenko,Олександр Оніщенко,Ukraine,90,,,,,-200,215,-225,,,,,,215,90,Pro Open,M,B,Raw,,215.0,,1980
2,Aleksandr Scherbakov,,Moldova,90,,,,,200,210,-222.5,,,,,,210,90,Pro Open,M,B,Raw,,210.0,,1966
3,Evgen Aleksienko,Євген Алексієнко,Ukraine,90,,,,,205,-210,-210,,,,,,205,90,Pro Open,M,B,Raw,,205.0,,1976
1,Viktor Rublov,Віктор Рубльов,Ukraine,98.9,,,,,-165,170,180,,,,,,180,100,Pro Open,M,B,Raw,,180.0,,1975
2,Sergiy Vasiltsov,Сергій Васильцов,Ukraine,92.25,,,,,150,160,172.5,,,,,,172.5,100,Pro Open,M,B,Raw,,172.5,,1990
3,Roman Aleksandrov,Роман Александров,Ukraine,97.6,,,,,162.5,170,-175,,,,,,170,100,Pro Open,M,B,Raw,,170.0,,1993
4,Roman Sidenko,Роман Сиденко,Ukraine,99.35,,,,,160,170,-175,,,,,,170,100,Pro Open,M,B,Raw,,170.0,,1988
5,Sergiy Dem'Yanov,Сергій Дем'Янов,Ukraine,91.2,,,,,160,167.5,-172.5,,,,,,167.5,100,Pro Open,M,B,Raw,,167.5,,1986
1,Taras Piven,Тарас Півень,Ukraine,107.65,,,,,185,192.5,-200,,,,,,192.5,110,Pro Open,M,B,Raw,,192.5,,1980
2,Andriy Prikhodko,Андрій Приходько,Ukraine,109.85,,,,,185,192.5,-200,,,,,,192.5,110,Pro Open,M,B,Raw,,192.5,,1981
3,Andriy Tarnovskiy,Андрій Тарновський,Ukraine,109,,,,,180,187.5,-192.5,,,,,,187.5,110,Pro Open,M,B,Raw,,187.5,,1989
1,Vitaliy Pokinchereda,Віталій Покиньчереда,Ukraine,120.8,,,,,200,207.5,212.5,,,,,,212.5,125,Pro Open,M,B,Raw,,212.5,,1976
2,Sergiy Yaremchuk,Сергій Яремчук,Ukraine,119.8,,,,,-180,195,205,,,,,,205,125,Pro Open,M,B,Raw,,205.0,,1989
3,Dmitro Sarkits,Дмитро Саркіц,Ukraine,119.55,,,,,-192.5,-192.5,192.5,,,,,,192.5,125,Pro Open,M,B,Raw,,192.5,,1974
1,Viktor Blakitniy,Віктор Блакитний,Ukraine,81.4,,,,,160,170,-175,,,,,,170,,Pro Submasters 33-39,M,B,Raw,,170.0,,1981
1,Oleksandr Onishchenko,Олександр Оніщенко,Ukraine,90,,,,,-200,215,-225,,,,,,215,90,Pro Submasters 33-39,M,B,Raw,,215.0,,1980
1,Oleksandr Karnaukh,Олександр Карнаух,Ukraine,100.4,,,,,190,195,-200,,,,,,195,110,Pro Submasters 33-39,M,B,Raw,,195.0,,1980
2,Andriy Prikhodko,Андрій Приходько,Ukraine,109.85,,,,,185,192.5,-200,,,,,,192.5,110,Pro Submasters 33-39,M,B,Raw,,192.5,,1981
3,Andriy Babenko,Андрій Бабенко,Ukraine,105.9,,,,,115,-125,130,,,,,,130,110,Pro Submasters 33-39,M,B,Raw,,130.0,,2004
1,Evgen Aleksienko,Євген Алексієнко,Ukraine,90,,,,,205,-210,-210,,,,,,205,90,Pro Masters 40-44,M,B,Raw,,205.0,,1976
2,Sergiy Chereshnev,Сергій Черешнєв,Ukraine,86.2,,,,,135,140,145,,,,,,145,90,Pro Masters 40-44,M,B,Raw,,145.0,,1978
1,Viktor Rublov,Віктор Рубльов,Ukraine,98.9,,,,,-165,170,180,,,,,,180,100,Pro Masters 40-44,M,B,Raw,,180.0,,1975
2,Volodimir Ratushniy,Володимир Ратушний,Ukraine,95.4,,,,,150,157.5,162.5,,,,,,162.5,100,Pro Masters 40-44,M,B,Raw,,162.5,,1974
1,Vitaliy Pokinchereda,Віталій Покиньчереда,Ukraine,120.8,,,,,200,207.5,212.5,,,,,,212.5,125,Pro Masters 40-44,M,B,Raw,,212.5,,1976
2,Dmitro Sarkits,Дмитро Саркіц,Ukraine,119.55,,,,,-192.5,-192.5,192.5,,,,,,192.5,125,Pro Masters 40-44,M,B,Raw,,192.5,,1974
1,Oleksandr Zhariy,Олександр Жарий,Ukraine,65.75,,,,,125,132.5,-137.5,,,,,,132.5,,Pro Masters 45-49,M,B,Raw,,132.5,,1972
1,Sergiy Avramenko,Сергій Авраменко,Ukraine,111,,,,,110,115,117.5,,,,,,117.5,125,Pro Masters 45-49,M,B,Raw,,117.5,,1971
2,Vsevolod Goncharov,Всеволод Гончаров,Ukraine,114.7,,,,,-95,-100,100,,,,,,100,125,Pro Masters 45-49,M,B,Raw,,100.0,,1969
1,Aleksandr Scherbakov,,Moldova,90,,,,,200,210,-222.5,,,,,,210,90,Pro Masters 50-54,M,B,Raw,,210.0,,1966
1,Mikhaylo Geenko,Михайло Геєнко,Ukraine,109.35,,,,,-160,160,162.5,,,,,,162.5,110,Pro Masters 50-54,M,B,Raw,,162.5,,1963
1,Ivan Kozir,Иван Козырь,Ukraine,79.8,,,,,160,170,-175,,,,,,170,,Pro Military/Fire/Police,M,B,Raw,,170.0,,1986
1,Oleksandr Ploskiy,Олександр Плоский,Ukraine,90,,,,,140,147.5,152.5,,,,,,152.5,90,Pro Military/Fire/Police,M,B,Raw,,152.5,,1974
2,Dmitro Malish,Дмитро Малиш,Ukraine,89.5,,,,,115,120,-125,,,,,,120,90,Pro Military/Fire/Police,M,B,Raw,,120.0,,1993
1,Roman Sidenko,Роман Сиденко,Ukraine,99.35,,,,,160,170,-175,,,,,,170,100,Pro Military/Fire/Police,M,B,Raw,,170.0,,1988
2,Volodimir Ratushniy,Володимир Ратушний,Ukraine,95.4,,,,,150,157.5,162.5,,,,,,162.5,100,Pro Military/Fire/Police,M,B,Raw,,162.5,,1974
1,Nadiya Tishchenko,Надія Тищенко,Ukraine,68.8,,,,,110,-120,-120,,,,,,110,75,Pro Open,F,B,Raw,,110.0,,1993
2,Olena Golubitska,Олена Голубицька,Ukraine,72.75,,,,,55,57.5,-60,,,,,,57.5,75,Pro Open,F,B,Raw,,57.5,,1981
1,Viktoriya Rozhanska,Вікторія Рожанська,Ukraine,64.8,,,,,45,50,52.5,,,,,,52.5,,Pro Submasters 33-39,F,B,Raw,,52.5,,1978
1,Oleksandr Shvab,Олександр Шваб,Ukraine,133.1,,,,,190,210,,,,,,,210,140,Amateur Open,M,B,Multi-ply,,210.0,,1976
1,Oleksandr Shvab,Олександр Шваб,Ukraine,133.1,,,,,190,210,,,,,,,210,140,Amateur Masters 40-44,M,B,Multi-ply,,210.0,,1976
1,Vitaliy Menchuk,Віталій Менчук,Ukraine,94.15,,,,,230,-235,-240,,,,,,230,100,Pro Teen 18-19,M,B,Multi-ply,,230.0,,1998
1,Roman Pelikh,Роман Пелих,Ukraine,72.8,,,,,200,210,220,,,,,,220,75,Pro Open,M,B,Multi-ply,,220.0,,1985
1,Kostyantin Chernov,Костянтин Чернов,Ukraine,88.4,,,,,245,260,270,,,,,,270,90,Pro Open,M,B,Multi-ply,,270.0,,1984
1,Kim Tarverdiev,Кім Тарвердієв,Ukraine,43.45,,,,,,,,,30,,,,30,44,Amateur Children 9,M,D,Raw,,,30.0,2008
1,Timur Kukhta,Тимур Кухта,Ukraine,50.65,,,,,,,,,80,87.5,-92.5,,87.5,52,Amateur Children 11-12,M,D,Raw,,,87.5,2005
1,Ruslan Melnik,Руслан Мельник,Ukraine,74.2,,,,,,,,,160,167.5,180,,180,75,Amateur Teen 13-15,M,D,Raw,,,180.0,2003
2,Igor Rimarchuk,Ігор Римарчук,Ukraine,68.1,,,,,,,,,107.5,115,-120,,115,75,Amateur Teen 13-15,M,D,Raw,,,115.0,2004
1,Yaroslav Gavyada,Ярослав Гав'Яда,Ukraine,96.6,,,,,,,,,210,220,235,,235,100,Amateur Teen 13-15,M,D,Raw,,,235.0,2003
1,Artur Kukhta,Артур Кухта,Ukraine,52,,,,,,,,,-110,110,-125,,110,52,Amateur Teen 16-17,M,D,Raw,,,110.0,2002
1,Vladislav Kovach,Владислав Ковач,Ukraine,67,,,,,,,,,175,-182.5,,,175,,Amateur Teen 16-17,M,D,Raw,,,175.0,2001
1,Sergiy Melnik,Сергій Мельник,Ukraine,75,,,,,,,,,120,135,150,,150,75,Amateur Teen 16-17,M,D,Raw,,,150.0,2001
1,Nazariy Levitskiy,Назарій Левицький,Ukraine,78.8,,,,,,,,,180,195,-200,,195,,Amateur Teen 16-17,M,D,Raw,,,195.0,2000
1,Maksim Gibets,Максим Гібець,Ukraine,72.95,,,,,,,,,185,190,195,,195,75,Amateur Teen 18-19,M,D,Raw,,,195.0,1999
2,Vasil Kovalchuk,Василь Ковальчук,Ukraine,75,,,,,,,,,160,-170,170,,170,75,Amateur Teen 18-19,M,D,Raw,,,170.0,1999
1,Andriy Biletskiy,Андрій Білецький,Ukraine,81.8,,,,,,,,,167.5,177.5,190,,190,,Amateur Teen 18-19,M,D,Raw,,,190.0,2000
1,Nazar Klets,Назар Клец,Ukraine,85.9,,,,,,,,,135,147.5,155,,155,90,Amateur Teen 18-19,M,D,Raw,,,155.0,1998
1,Sergiy Denisevich,Сергій Денисевич,Ukraine,67.5,,,,,,,,,200,220,-235,,220,,Amateur Juniors 20-23,M,D,Raw,,,220.0,1994
2,Mikola Metekha,Микола Метеха,Ukraine,66.45,,,,,,,,,135,145,150,,150,,Amateur Juniors 20-23,M,D,Raw,,,150.0,1996
1,Andriy Masley,Андрій Маслей,Ukraine,73,,,,,,,,,130,145,157.5,,157.5,75,Amateur Juniors 20-23,M,D,Raw,,,157.5,1996
1,Oleksandr Nayden,Олександр Найден,Ukraine,82.4,,,,,,,,,205,215,225,,225,,Amateur Juniors 20-23,M,D,Raw,,,225.0,1997
2,Bogdan Pavlishak,Богдан Павлишак,Ukraine,76,,,,,,,,,190,205,210,,210,,Amateur Juniors 20-23,M,D,Raw,,,210.0,1995
3,Vasil Pavlishak,Василь Павлишак,Ukraine,77.6,,,,,,,,,180,190,195,,195,,Amateur Juniors 20-23,M,D,Raw,,,195.0,1997
1,Evgen Nikolenko,Євген Ніколенко,Ukraine,84.8,,,,,,,,,210,222.5,-227.5,,222.5,90,Amateur Juniors 20-23,M,D,Raw,,,222.5,1994
2,Oleksiy Gulevich,Олексій Гулевич,Ukraine,85.65,,,,,,,,,185,195,-210,,195,90,Amateur Juniors 20-23,M,D,Raw,,,195.0,1998
3,Mikhaylo Korobko,Михайло Коробко,Ukraine,86.75,,,,,,,,,170,-185,185,,185,90,Amateur Juniors 20-23,M,D,Raw,,,185.0,1997
4,Dmitro Nestrachuk,Дмитро Нестрачук,Ukraine,89.15,,,,,,,,,165,-175,185,,185,90,Amateur Juniors 20-23,M,D,Raw,,,185.0,1995
1,Igor Korshilivskiy,Ігор Коршилівський,Ukraine,95.1,,,,,,,,,240,250,260,,260,100,Amateur Juniors 20-23,M,D,Raw,,,260.0,1998
2,Artem Cheberyak,Артем Чеберяк,Ukraine,95.6,,,,,,,,,170,185,-197.5,,185,100,Amateur Juniors 20-23,M,D,Raw,,,185.0,1994
1,Dmitro Shevchuk,Дмитро Шевчук,Ukraine,106.25,,,,,,,,,210,230,245,,245,110,Amateur Juniors 20-23,M,D,Raw,,,245.0,1994
1,Kim Tarverdiev,Кім Тарвердієв,Ukraine,43.45,,,,,,,,,30,,,,30,44,Amateur Open,M,D,Raw,,,30.0,2008
1,Sergiy Denisevich,Сергій Денисевич,Ukraine,67.5,,,,,,,,,200,220,-235,,220,,Amateur Open,M,D,Raw,,,220.0,1994
2,Vladislav Kovach,Владислав Ковач,Ukraine,67,,,,,,,,,175,-182.5,,,175,,Amateur Open,M,D,Raw,,,175.0,2001
3,Roman Brovkov,Роман Бровков,Ukraine,63.7,,,,,,,,,100,110,125,,125,,Amateur Open,M,D,Raw,,,125.0,1988
1,Artur Yushin,Артур Юшин,Ukraine,74.9,,,,,,,,,240,-260,265,,265,75,Amateur Open,M,D,Raw,,,265.0,1993
2,Kostyantin Bovan,Костянтин Бован,Ukraine,73.9,,,,,,,,,180,195,200,,200,75,Amateur Open,M,D,Raw,,,200.0,1989
3,Maksim Gibets,Максим Гібець,Ukraine,72.95,,,,,,,,,185,190,195,,195,75,Amateur Open,M,D,Raw,,,195.0,1999
4,Volodimir Zhmudik,Володимир Жмудик,Ukraine,73.75,,,,,,,,,160,175,182.5,,182.5,75,Amateur Open,M,D,Raw,,,182.5,1993
5,Eduard Karaush,Едуард Карауш,Ukraine,72.15,,,,,,,,,170,180,-185,,180,75,Amateur Open,M,D,Raw,,,180.0,1993
6,Vasil Kovalchuk,Василь Ковальчук,Ukraine,75,,,,,,,,,160,-170,170,,170,75,Amateur Open,M,D,Raw,,,170.0,1999
7,Andriy Yamnich,Андрій Ямнич,Ukraine,70.1,,,,,,,,,125,140,150,,150,75,Amateur Open,M,D,Raw,,,150.0,1993
1,Vitaliy Titarenko,Віталій Титаренко,Ukraine,79.55,,,,,,,,,210,-220,220,,220,,Amateur Open,M,D,Raw,,,220.0,1990
1,Dmitro Garasim,Дмитро Гарасим,Ukraine,87.4,,,,,,,,,225,240,,,240,90,Amateur Open,M,D,Raw,,,240.0,1985
2,Oleksandr Drobilko,Олександр Дробілко,Ukraine,86.95,,,,,,,,,210,220,230,,230,90,Amateur Open,M,D,Raw,,,230.0,1972
3,Sergiy Yurchuk,Сергій Юрчук,Ukraine,87.5,,,,,,,,,220,230,-240,,230,90,Amateur Open,M,D,Raw,,,230.0,1986
4,Evgen Nikolenko,Євген Ніколенко,Ukraine,84.8,,,,,,,,,210,222.5,-227.5,,222.5,90,Amateur Open,M,D,Raw,,,222.5,1994
1,Oleksandr Lisovskiy,Олександр Лісовський,Ukraine,94.6,,,,,,,,,252.5,265,-275.5,,265,100,Amateur Open,M,D,Raw,,,265.0,1990
2,Andriy Zinich,Андрій Зініч,Ukraine,97.15,,,,,,,,,240,252.5,,,252.5,100,Amateur Open,M,D,Raw,,,252.5,1987
3,Genadiy Motlyuk,Генадій Мотлюк,Ukraine,92.95,,,,,,,,,235,-250,250,,250,100,Amateur Open,M,D,Raw,,,250.0,1990
4,Mikhaylo Kravchenya,Михайло Кравченя,Ukraine,93.8,,,,,,,,,245,-255,-255,,245,100,Amateur Open,M,D,Raw,,,245.0,1992
5,Evgeniy Kandaurov,Євгеній Кандауров,Ukraine,97.3,,,,,,,,,225,240,-250,,240,100,Amateur Open,M,D,Raw,,,240.0,1988
6,Bogdan Pazich,Богдан Пазич,Ukraine,95.2,,,,,,,,,197.5,205,210,,210,100,Amateur Open,M,D,Raw,,,210.0,1991
1,Sergiy Bessel,Сергій Бессель,Ukraine,107.5,,,,,,,,,245,255,267.5,,267.5,110,Amateur Open,M,D,Raw,,,267.5,1984
2,Nazar Korzhak,Назар Коржак,Ukraine,103.95,,,,,,,,,245,255,-262.5,,255,110,Amateur Open,M,D,Raw,,,255.0,1993
3,Oleksiy Boychuk,Олексій Бойчук,Ukraine,107.5,,,,,,,,,220,230,242.5,,242.5,110,Amateur Open,M,D,Raw,,,242.5,1986
1,Artur Maslovets,Артур Масловець,Ukraine,119.75,,,,,,,,,245,260,-275,,260,125,Amateur Open,M,D,Raw,,,260.0,1988
2,Ivan Ilchenko,Іван Ільченко,Ukraine,110.6,,,,,,,,,215,227.5,235,,235,125,Amateur Open,M,D,Raw,,,235.0,1988
3,Danilo Udovik,Данило Удовик,Ukraine,113.45,,,,,,,,,210,222.5,227.5,,227.5,125,Amateur Open,M,D,Raw,,,227.5,1992
1,Viktor Shapirko,Віктор Шапірко,Ukraine,72.5,,,,,,,,,155,167.5,175,,175,75,Amateur Submasters 33-39,M,D,Raw,,,175.0,1978
1,Oleg Zakharchuk,Олег Захарчук,Ukraine,90,,,,,,,,,75,90,-105,,90,90,Amateur Submasters 33-39,M,D,Raw,,,90.0,1980
1,Ivan Pirozhenko,Іван Піроженко,Ukraine,94.75,,,,,,,,,180,200,210,,210,100,Amateur Submasters 33-39,M,D,Raw,,,210.0,1983
1,Oleksiy Panenko,Олексій Паненко,Ukraine,102.8,,,,,,,,,230,260,,,260,110,Amateur Submasters 33-39,M,D,Raw,,,260.0,1980
1,Vyacheslav Vakhrushev,Вячеслав Вахрушев,Ukraine,80.15,,,,,,,,,175,-180,180,,180,,Amateur Masters 40-44,M,D,Raw,,,180.0,1977
1,Oleksandr Drobilko,Олександр Дробілко,Ukraine,86.95,,,,,,,,,210,220,230,,230,90,Amateur Masters 45-49,M,D,Raw,,,230.0,1972
1,Vitaliy Filonenko,Віталій Філоненко,Ukraine,103.35,,,,,,,,,175,185,-190,,185,110,Amateur Masters 50-54,M,D,Raw,,,185.0,1964
1,Gennadiy Petrenko,Геннадій Петренко,Ukraine,74.4,,,,,,,,,185,195,200,,200,75,Amateur Masters 55-59,M,D,Raw,,,200.0,1959
1,Volodimir Chepurniy,Володимир Чепурний,Ukraine,82.35,,,,,,,,,205,215,225,,225,,Amateur Masters 55-59,M,D,Raw,,,225.0,1960
1,Igor Orlov,Ігор Орлов,Ukraine,96.7,,,,,,,,,140,150,-160,,150,100,Amateur Masters 55-59,M,D,Raw,,,150.0,1959
1,Oleksandr Ostrovskiy,Олександр Островський,Ukraine,79.7,,,,,,,,,135,145,155,,155,,Amateur Masters 65-69,M,D,Raw,,,155.0,1953
1,Yuriy Starkov,Юрій Старков,Ukraine,81.5,,,,,,,,,190,200,210,,210,,Amateur Masters 70-74,M,D,Raw,,,210.0,1947
1,Andriy Levitskiy,Андрій Левицький,Ukraine,92.05,,,,,,,,,235,-250,250,,250,100,Amateur Military/Fire/Police,M,D,Raw,,,250.0,1988
1,Vitaliy Filonenko,Віталій Філоненко,Ukraine,103.35,,,,,,,,,175,185,-190,,185,110,Amateur Military/Fire/Police,M,D,Raw,,,185.0,1964
1,Ivan Korovitskiy,Іван Коровіцький,Ukraine,99.55,,,,,,,,,115,130,-147.5,,130,100,Amateur Paralympian,M,D,Raw,,,130.0,1987
1,Dana Tsikhonya,Дана Цихоня,Ukraine,66.15,,,,,,,,,80,85,95,,95,,Amateur Teen 13-15,F,D,Raw,,,95.0,2003
1,Valeriya Boyko,Валерія Бойко,Ukraine,52.8,,,,,,,,,90,100,110,,110,56,Amateur Juniors 20-23,F,D,Raw,,,110.0,1994
1,Oksana Motrunchik,Оксана Мотрунчик,Ukraine,46.8,,,,,,,,,90,100,105,,105,48,Amateur Open,F,D,Raw,,,105.0,1992
1,Yuliya Tsimbalyuk,Юлія Цимбалюк,Ukraine,50.65,,,,,,,,,110,-117.5,117.5,,117.5,52,Amateur Open,F,D,Raw,,,117.5,1986
2,Yana Nechaeva,Яна Нечаєва,Ukraine,51.3,,,,,,,,,95,100,102.5,,102.5,52,Amateur Open,F,D,Raw,,,102.5,1991
3,Katerina Moysik,Катерина Мойсік,Ukraine,49.2,,,,,,,,,-90,90,92.5,,92.5,52,Amateur Open,F,D,Raw,,,92.5,1984
1,Olga Yarmolyuk,Ольга Ярмолюк,Ukraine,54.9,,,,,,,,,150,160,165,,165,56,Amateur Open,F,D,Raw,,,165.0,1989
2,Alla Ryazanova,Алла Рязанова,Ukraine,55.2,,,,,,,,,130,142.5,150,,150,56,Amateur Open,F,D,Raw,,,150.0,1979
3,Svitlana Sinyuta,Світлана Синюта,Ukraine,54.75,,,,,,,,,117.5,122.5,125,,125,56,Amateur Open,F,D,Raw,,,125.0,1987
4,Kristina Zhabyuk,Кристина Жабюк,Ukraine,55.6,,,,,,,,,110,112.5,115,,115,56,Amateur Open,F,D,Raw,,,115.0,1994
1,Nataliya Sokurenko,Наталія Сокуренко,Ukraine,57.75,,,,,,,,,140,-150,150,,150,60,Amateur Open,F,D,Raw,,,150.0,1981
2,Olga Drozdova,Ольга Дроздова,Ukraine,59.7,,,,,,,,,130,-140,140,,140,60,Amateur Open,F,D,Raw,,,140.0,1988
3,Inna Lazorenko,Інна Лазоренко,Ukraine,59.9,,,,,,,,,115,125,130,,130,60,Amateur Open,F,D,Raw,,,130.0,1993
1,Oksana Ostroushko,Оксана Остроушко,Ukraine,61.3,,,,,,,,,100,110,115,,115,,Amateur Open,F,D,Raw,,,115.0,1983
1,Inna Zhovta,Інна Жовта,Ukraine,89.8,,,,,,,,,130,140,145,,145,90,Amateur Open,F,D,Raw,,,145.0,1981
1,Katerina Moysik,Катерина Мойсік,Ukraine,49.2,,,,,,,,,-90,90,92.5,,92.5,52,Amateur Submasters 33-39,F,D,Raw,,,92.5,1984
1,Oksana Muzika,Оксана Музика,Ukraine,67.5,,,,,,,,,55,,,,55,,Amateur Masters 45-49,F,D,Raw,,,55.0,1969
1,Olena Gibets,Олена Гібець,Ukraine,81.8,,,,,,,,,-100,120,-130,,120,,Amateur Masters 50-54,F,D,Raw,,,120.0,1967
1,Igor Bigun,Ігор Бігун,Ukraine,80.3,,,,,,,,,120,135,140,,140,,Pro Teen 13-15,M,D,Raw,,,140.0,2002
1,Vitaliy Pidkaura,Віталій Підкаура,Ukraine,87.2,,,,,,,,,210,225,232.5,,232.5,90,Pro Teen 16-17,M,D,Raw,,,232.5,2000
1,Anatoliy Starostenko,Анатолій Старостенко,Ukraine,66.4,,,,,,,,,212.5,222.5,232.5,,232.5,,Pro Teen 18-19,M,D,Raw,,,232.5,1999
1,Valentin Krakovetskiy,Валентин Краковецький,Ukraine,74.2,,,,,,,,,-120,132.5,140,,140,75,Pro Teen 18-19,M,D,Raw,,,140.0,1999
1,Vitaliy Stets,Віталій Стець,Ukraine,95.15,,,,,,,,,280,-300,-300,,280,100,Pro Teen 18-19,M,D,Raw,,,280.0,1998
1,Oleksandr Trondyuk,Олександр Трондюк,Ukraine,74.7,,,,,,,,,-265,265,-282.5,,265,75,Pro Juniors 20-23,M,D,Raw,,,265.0,1995
2,Vadim Yukhov,Вадим Юхов,Ukraine,72,,,,,,,,,195,205,215,,215,75,Pro Juniors 20-23,M,D,Raw,,,215.0,1996
1,Dmitro Shpargala,Дмитро Шпаргала,Ukraine,82,,,,,,,,,220,227.5,235,,235,,Pro Juniors 20-23,M,D,Raw,,,235.0,1995
1,Yuriy Folvarochniy,Юрій Фольварочний,Ukraine,96.2,,,,,,,,,-200,200,-207.5,,200,100,Pro Juniors 20-23,M,D,Raw,,,200.0,1996
1,Oleksandr Trondyuk,Олександр Трондюк,Ukraine,74.7,,,,,,,,,-265,265,-282.5,,265,75,Pro Open,M,D,Raw,,,265.0,1995
2,Andriy Boyko,Андрій Бойко,Ukraine,74.25,,,,,,,,,210,220,-230,,220,75,Pro Open,M,D,Raw,,,220.0,1993
1,Denis Pavlyak,Денис Павляк,Ukraine,76,,,,,,,,,165,175,185,,185,,Pro Open,M,D,Raw,,,185.0,1991
1,Oleksii Melnyk,Олексій Мельник,Ukraine,89.3,,,,,,,,,300,320,-340,,320,90,Pro Open,M,D,Raw,,,320.0,1990
2,Kostyantin Chernov,Костянтин Чернов,Ukraine,88.4,,,,,,,,,245,-260,,,245,90,Pro Open,M,D,Raw,,,245.0,1984
1,Oleg Yanovich,Олег Янович,Ukraine,95.15,,,,,,,,,270,282.5,295,,295,100,Pro Open,M,D,Raw,,,295.0,1992
2,Vitaliy Stets,Віталій Стець,Ukraine,95.15,,,,,,,,,280,-300,-300,,280,100,Pro Open,M,D,Raw,,,280.0,1998
3,Vadim Omelchuk,Вадим Омельчук,Ukraine,95.1,,,,,,,,,160,175,200,,200,100,Pro Open,M,D,Raw,,,200.0,1989
1,Ruslan Vinnik,Руслан Вінник,Ukraine,108.2,,,,,,,,,270,282.5,290,,290,110,Pro Open,M,D,Raw,,,290.0,1980
2,Andriy Tarnovskiy,Андрій Тарновський,Ukraine,109,,,,,,,,,230,245,-255,,245,110,Pro Open,M,D,Raw,,,245.0,1989
1,Sergiy Yaremchuk,Сергій Яремчук,Ukraine,119.8,,,,,,,,,-180,200,255,,255,125,Pro Open,M,D,Raw,,,255.0,1989
1,Vasil Mikhalskiy,Василь Михальський,Ukraine,81.15,,,,,,,,,220,235,,,235,,Pro Submasters 33-39,M,D,Raw,,,235.0,1980
1,Ruslan Vinnik,Руслан Вінник,Ukraine,108.2,,,,,,,,,270,282.5,290,,290,110,Pro Submasters 33-39,M,D,Raw,,,290.0,1980
1,Andriy Boyko,Андрій Бойко,Ukraine,74.25,,,,,,,,,210,220,-230,,220,75,Pro Military/Fire/Police,M,D,Raw,,,220.0,1993
1,Yukhim Stepatskiy,Юхим Степацький,Ukraine,88,,,,,,,,,-240,240,255,,255,90,Pro Military/Fire/Police,M,D,Raw,,,255.0,1987
1,Anastasiya Bulankina,Анастасія Буланкіна,Ukraine,47.8,,,,,,,,,50,-60,60,,60,48,Pro Teen 16-17,F,D,Raw,,,60.0,2001
1,Yana Khromets,Яна Хромець,Ukraine,56.7,,,,,,,,,50,62.5,67.5,,67.5,60,Pro Teen 16-17,F,D,Raw,,,67.5,2000
1,Lyudmila Sus,Людмила Сус,Ukraine,59.7,,,,,,,,,105,115,125.5,,125.5,60,Pro Juniors 20-23,F,D,Raw,,,125.5,1997
1,Mariya Kravchuk,Марія Кравчук,Ukraine,55.75,,,,,,,,,145,-155,-155,,145,56,Pro Open,F,D,Raw,,,145.0,1983
2,Alona Babenko,Альона Бабенко,Ukraine,56,,,,,,,,,65,70,75,,75,56,Pro Open,F,D,Raw,,,75.0,1986
1,Yuliya Malinovska,Юлія Маліновська,Ukraine,59.7,,,,,,,,,150,160,-165,,160,60,Pro Open,F,D,Raw,,,160.0,1984
1,Yuliya Malinovska,Юлія Маліновська,Ukraine,59.7,,,,,,,,,150,160,-165,,160,60,Pro Submasters 33-39,F,D,Raw,,,160.0,1984
1,Yuriy Maligin,Юрій Малигін,Ukraine,101.4,,,,,,,,,120,150,165,,165,110,Pro Masters 50-54,M,D,Multi-ply,,,165.0,1967
