Place,Name,State,WeightClassKg,BodyweightKg,Age,Best3SquatKg,Best3BenchKg,Best3DeadliftKg,TotalKg,Sex,Division,Equipment,Event
1,Katherine Rice,GA,60,59.2,24,122.5,72.5,160,355,F,Open,Raw,SBD
2,Erica Lombardo,TN,60,58.7,27,117.5,65,140,322.5,F,Open,Raw,SBD
1,Audrey Jaksich,GA,67.5,62.9,26,130,100,167.5,397.5,F,Open,Raw,SBD
2,Victoria Betolatti,GA,67.5,62,25,115,80,145,340,F,Open,Raw,SBD
3,Alicia Neblett,GA,67.5,66.1,35,110,77.5,140,327.5,F,Open,Raw,SBD
4,Christina Nosari,GA,67.5,65.8,25,92.5,55,140,287.5,F,Open,Raw,SBD
5,Sarah McColley,GA,67.5,65.6,29,102.5,52.5,130,285,F,Open,Raw,SBD
6,Jessica Eckhart,TN,67.5,65,32,95,52.5,130,277.5,F,Open,Raw,SBD
1,Kellye Mantooth,TN,75,74.5,26,142,70,175,387,F,Open,Raw,SBD
2,Brittney Hoots,GA,75,74.3,28,112.5,57.5,137.5,307.5,F,Open,Raw,SBD
3,Jillian Hawkins,GA,75,71.3,27,107.5,67.5,130,305,F,Open,Raw,SBD
4,Sarah Huckleby,GA,82.5,79.3,13,90,37.5,115,242.5,F,Open,Raw,SBD
1,Bridgette Killion,GA,82.5,81.4,46,137.5,92.5,182.5,412.5,F,Open,Raw,SBD
1,Jacob Capra,GA,90,89.6,22,220,140,240,600,M,Juniors 20-23,Raw,SBD
1,William Aultman,GA,67.5,66.6,25,170,112.5,202.5,485,M,Open,Raw,SBD
2,Lucas De Lara Marci,SP,67.5,65.9,28,150,110,217.5,477.5,M,Open,Raw,SBD
3,Alex Ta,GA,67.5,66.9,18,130,80,142.5,352.5,M,Open,Raw,SBD
4,David Michalove,NC,67.5,66.5,24,147.5,125,190,462.5,M,Open,Raw,SBD
1,Colby Lapresi,NC,75,74.4,25,135,102.5,210,447.5,M,Open,Raw,SBD
1,Albert Case,GA,82.5,80.2,31,210,140,235,585,M,Open,Raw,SBD
2,Jeremy Tyson,GA,82.5,80.3,20,182.5,162.5,227.5,572.5,M,Open,Raw,SBD
3,Mark Rice,FL,82.5,81.8,30,175,127.5,230,532.5,M,Open,Raw,SBD
4,John Romanowski,MS,82.5,79.9,29,185,107.5,230,522.5,M,Open,Raw,SBD
5,Chris Le,SC,82.5,80.8,20,190,102.5,227.5,520,M,Open,Raw,SBD
6,Jason Guzman,GA,82.5,81.6,40,172.5,117.5,190,480,M,Open,Raw,SBD
7,Melton Harrell,GA,82.5,78.3,76,120,75,147.5,342.5,M,Open,Raw,SBD
1,William Wheelis,GA,90,90,27,247.5,167.5,265,680,M,Open,Raw,SBD
2,Jacob Capra,GA,90,89.6,22,220,140,240,600,M,Open,Raw,SBD
3,Justin McClinton,AL,90,89.3,26,207.5,157.5,220,585,M,Open,Raw,SBD
4,Alexander Colovos,GA,90,89,21,180,132.5,242.5,555,M,Open,Raw,SBD
5,Robert Cochran,GA,90,87.8,33,177.5,115,220,512.5,M,Open,Raw,SBD
6,Sean Jacobs,NC,90,87.9,25,147.5,100,190,437.5,M,Open,Raw,SBD
1,Cardell Oliver,GA,100,99,37,270,190,325,785,M,Open,Raw,SBD
2,Ed Anton,GA,100,98.8,45,232.5,182.5,260,675,M,Open,Raw,SBD
3,Dereck Cyrus II,AL,100,94.4,21,245,187.5,227.5,660,M,Open,Raw,SBD
4,Landon VanValkenburg,FL,100,97.4,34,210,165,255,630,M,Open,Raw,SBD
5,Oakley Walraven,GA,100,99.2,31,75,215,75,365,M,Open,Raw,SBD
1,Kyle Lombardo,TN,110,106.1,30,257.5,227.5,272.5,757.5,M,Open,Raw,SBD
2,Jose Flores,GA,110,108.1,24,290,177.5,282.5,750,M,Open,Raw,SBD
3,Solomon Kim,GA,110,106.8,27,242.5,177.5,275,695,M,Open,Raw,SBD
4,John Bogusz,TN,110,107.3,24,227.5,172.5,265,665,M,Open,Raw,SBD
1,Sam Davis,AL,125,121.2,42,205,177.5,255,637.5,M,Open,Raw,SBD
2,Greg Simpson,GA,125,120.1,46,220,165,250,635,M,Open,Raw,SBD
1,Julian Barton,GA,140,130,25,282.5,177.5,285,745,M,Open,Raw,SBD
1,David Huckleby,GA,140+,140.5,42,250,155,250,655,M,Open,Raw,SBD
2,Josh Laster,LA,140+,162.1,33,222.5,135,252.5,610,M,Open,Raw,SBD
1,Jason Guzman,GA,82.5,81.6,40,172.5,117.5,190,480,M,Masters 40-44,Raw,SBD
1,Ed Anton,GA,100,98.8,45,232.5,182.5,260,675,M,Masters 45-49,Raw,SBD
1,Sam Davis,AL,125,121.2,42,205,177.5,255,637.5,M,Masters 40-44,Raw,SBD
1,Greg Simpson,GA,125,120.1,46,220,165,250,635,M,Masters 45-49,Raw,SBD
1,David Huckleby,GA,140+,140.5,42,250,155,250,655,M,Masters 40-44,Raw,SBD
1,Kristine Wakefield,NC,60,59.4,43,110,70,142.5,322.5,F,Open,Wraps,SBD
1,Valerie Smith,GA,67.5,64.2,42,120,82.5,137.5,340,F,Open,Wraps,SBD
1,Kristine Wakefield,NC,60,59.4,43,110,70,142.5,322.5,F,Masters 40-44,Wraps,SBD
1,Valerie Smith,GA,67.5,64.2,42,120,82.5,137.5,340,F,Masters 40-44,Wraps,SBD
1,Steven Smejkal,AL,75,69.4,23,137.5,92.5,185,415,M,Juniors 20-23,Wraps,SBD
1,Steven Smejkal,AL,75,69.4,23,137.5,92.5,185,415,M,Open,Wraps,SBD
1,Jamal Mitchell,GA,82.5,82,21,212.5,135,242.5,590,M,Open,Wraps,SBD
1,Colin Evans,GA,90,89.6,28,295,220,272.5,787.5,M,Open,Wraps,SBD
2,Jed Tiller,GA,90,89.6,31,260,165,277.5,702.5,M,Open,Wraps,SBD
1,Blake Tignor,GA,100,98.6,22,290,182.5,275,747.5,M,Open,Wraps,SBD
2,Matthew Glasper,GA,100,96.1,38,220,165,247.5,632.5,M,Open,Wraps,SBD
3,Tyler Laymon,AL,100,100,29,165,110,215,490,M,Open,Wraps,SBD
1,Tyler Cummings,GA,110,109.2,24,327.5,227.5,322.5,877.5,M,Open,Wraps,SBD
1,Scott Kanaday,AL,125,121.5,36,272.5,190,272.5,735,M,Open,Wraps,SBD
1,Tamika Fagan,GA,60,58.6,36,130,57.5,125,312.5,F,Open,Single-ply,SBD
1,Macy Armstrong,AL,90,86.6,30,207.5,120,182.5,510,F,Open,Single-ply,SBD
1,Tommy Herd,AL,125,116.4,32,202.5,155,222.5,580,M,Open,Single-ply,SBD
1,Joshua Anderson,GA,140,135.1,27,332.5,260,325,917.5,M,Open,Single-ply,SBD
1,Tim Evans,GA,125,123.2,36,,262.5,,262.5,M,Open,Raw,B
1,Tony Carlino,GA,110,108.8,28,,320,,320,M,Open,Single-ply,B
1,Ron Carter,GA,100,98,45,,212.5,,212.5,M,Open,Multi-ply,B
1,Ron Carter,GA,100,98,45,,212.5,,212.5,M,Masters 45-49,Multi-ply,B
1,Sanath Venkat,CA,67.5,62.8,19,,,185,185,M,Open,Raw,D
1,Howard Griffin,GA,82.5,80.4,42,,,177.5,177.5,M,Open,Single-ply,D
